\relax 
\providecommand\hyper@newdestlabel[2]{}
\providecommand\HyperFirstAtBeginDocument{\AtBeginDocument}
\HyperFirstAtBeginDocument{\ifx\hyper@anchor\@undefined
\global\let\oldcontentsline\contentsline
\gdef\contentsline#1#2#3#4{\oldcontentsline{#1}{#2}{#3}}
\global\let\oldnewlabel\newlabel
\gdef\newlabel#1#2{\newlabelxx{#1}#2}
\gdef\newlabelxx#1#2#3#4#5#6{\oldnewlabel{#1}{{#2}{#3}}}
\AtEndDocument{\ifx\hyper@anchor\@undefined
\let\contentsline\oldcontentsline
\let\newlabel\oldnewlabel
\fi}
\fi}
\global\let\hyper@last\relax 
\gdef\HyperFirstAtBeginDocument#1{#1}
\providecommand\HyField@AuxAddToFields[1]{}
\providecommand\HyField@AuxAddToCoFields[2]{}
\providecommand \oddpage@label [2]{}
\@writefile{toc}{\contentsline {chapter}{\numberline {1}Class Index}{1}{chapter.1}}
\@writefile{lof}{\addvspace {10\p@ }}
\@writefile{lot}{\addvspace {10\p@ }}
\@writefile{toc}{\contentsline {section}{\numberline {1.1}Class List}{1}{section.1.1}}
\@writefile{toc}{\contentsline {chapter}{\numberline {2}File Index}{3}{chapter.2}}
\@writefile{lof}{\addvspace {10\p@ }}
\@writefile{lot}{\addvspace {10\p@ }}
\@writefile{toc}{\contentsline {section}{\numberline {2.1}File List}{3}{section.2.1}}
\@writefile{toc}{\contentsline {chapter}{\numberline {3}Class Documentation}{5}{chapter.3}}
\@writefile{lof}{\addvspace {10\p@ }}
\@writefile{lot}{\addvspace {10\p@ }}
\@writefile{toc}{\contentsline {section}{\numberline {3.1}Gui\discretionary {\unhbox \voidb@x \hbox {\relax \fontsize  {7}{8}\selectfont  $\leftarrow \joinrel  \rhook $}}{}{}Param Struct Reference}{5}{section.3.1}}
\newlabel{struct_gui_param}{{3.1}{5}{Gui\+Param Struct Reference}{section.3.1}{}}
\newlabel{struct_gui_param_a910f3c45502c79afb1fca5b330660a4e}{{3.1}{5}{Public Attributes}{section*.2}{}}
\newlabel{struct_gui_param_a95a77f88613d0304ca295ab49b1017c0}{{3.1}{5}{Public Attributes}{section*.2}{}}
\newlabel{struct_gui_param_aacc5ce0ac2939977d6715ee6cfbf9ff1}{{3.1}{5}{Public Attributes}{section*.2}{}}
\newlabel{struct_gui_param_af60ac896e764d15bc6898a6b7daa0497}{{3.1}{5}{Public Attributes}{section*.2}{}}
\newlabel{struct_gui_param_ab4b8513fd33011027a617e1a1d155dc9}{{3.1}{5}{Public Attributes}{section*.2}{}}
\newlabel{struct_gui_param_acc3c4d04ff70c913560d96ed6e7c4ba4}{{3.1}{5}{Public Attributes}{section*.2}{}}
\newlabel{struct_gui_param_afc337b28cce4b25ba40727d2a2b30d8f}{{3.1}{5}{Public Attributes}{section*.2}{}}
\newlabel{struct_gui_param_ac3779b7bb503ce4c9f07c41bb8378ff9}{{3.1}{5}{Public Attributes}{section*.2}{}}
\newlabel{struct_gui_param_a5c3232332e1e3c7e3a258b91b48dae42}{{3.1}{5}{Public Attributes}{section*.2}{}}
\newlabel{struct_gui_param_ae5f2f64ae7a91a224cbc7ba06ab09953}{{3.1}{5}{Public Attributes}{section*.2}{}}
\newlabel{struct_gui_param_a4649c3b25856210aa4291fbadc22fac7}{{3.1}{5}{Public Attributes}{section*.2}{}}
\newlabel{struct_gui_param_a97502b2f7d13ade84f1b0ab178c871dc}{{3.1}{5}{Public Attributes}{section*.2}{}}
\newlabel{struct_gui_param_ab62dd0299c91aede043a58f963225904}{{3.1}{5}{Public Attributes}{section*.2}{}}
\newlabel{struct_gui_param_ac211c8941a3303acc812080a26f49d1f}{{3.1}{5}{Public Attributes}{section*.2}{}}
\newlabel{struct_gui_param_ab3d7670c924e8a5fb6f7d85c3f2875f1}{{3.1}{5}{Public Attributes}{section*.2}{}}
\newlabel{struct_gui_param_ad9b81150b71e70ecdb7971f9f7974252}{{3.1}{5}{Public Attributes}{section*.2}{}}
\newlabel{struct_gui_param_a756a83aa53cd8fd75faebfe2bc85da7d}{{3.1}{5}{Public Attributes}{section*.2}{}}
\newlabel{struct_gui_param_a0f45b442093bfb64ff7bd4dcd371d37a}{{3.1}{5}{Public Attributes}{section*.2}{}}
\newlabel{struct_gui_param_a0ec6aba30cfb61f5e540b2ca88f566dc}{{3.1}{5}{Public Attributes}{section*.2}{}}
\newlabel{struct_gui_param_a0a2e7acf1ff42423a4f0ee2819880fcc}{{3.1}{5}{Public Attributes}{section*.2}{}}
\newlabel{struct_gui_param_a26ceecaa897e44436e8b83f4fb437b42}{{3.1}{5}{Public Attributes}{section*.2}{}}
\newlabel{struct_gui_param_aac82f3b7dfc66f25fb931566988caf3f}{{3.1}{5}{Public Attributes}{section*.2}{}}
\newlabel{struct_gui_param_ad2a02daf910a3e88a93d102c78ba9c1e}{{3.1}{5}{Public Attributes}{section*.2}{}}
\newlabel{struct_gui_param_ab9631a7eb886acbe8f9a2957490d57d5}{{3.1}{5}{Public Attributes}{section*.2}{}}
\newlabel{struct_gui_param_a6b85b5d1ef03153caf31a3a1460fe9f9}{{3.1}{5}{Public Attributes}{section*.2}{}}
\newlabel{struct_gui_param_a446291ec967340464c367820f7b14c59}{{3.1}{5}{Public Attributes}{section*.2}{}}
\newlabel{struct_gui_param_afa4a7923e855d4490d455e7f298b02e0}{{3.1}{5}{Public Attributes}{section*.2}{}}
\newlabel{struct_gui_param_a61d12a221d95ed80933a81856fc42b0f}{{3.1}{5}{Public Attributes}{section*.2}{}}
\@writefile{toc}{\contentsline {subsection}{\numberline {3.1.1}Detailed Description}{6}{subsection.3.1.1}}
\@writefile{toc}{\contentsline {section}{\numberline {3.2}img\discretionary {\unhbox \voidb@x \hbox {\relax \fontsize  {7}{8}\selectfont  $\leftarrow \joinrel  \rhook $}}{}{}Ring\discretionary {\unhbox \voidb@x \hbox {\relax \fontsize  {7}{8}\selectfont  $\leftarrow \joinrel  \rhook $}}{}{}Buffer Struct Reference}{6}{section.3.2}}
\newlabel{structimg_ring_buffer}{{3.2}{6}{img\+Ring\+Buffer Struct Reference}{section.3.2}{}}
\newlabel{structimg_ring_buffer_ac902ce06d7787ebd2f065d8b9cac5e98}{{3.2}{6}{Public Attributes}{section*.3}{}}
\newlabel{structimg_ring_buffer_a84ba78c58b54917129de27f736ac5efe}{{3.2}{6}{Public Attributes}{section*.3}{}}
\newlabel{structimg_ring_buffer_a14569d0b10b67b42ea03e710cf6cd080}{{3.2}{6}{Public Attributes}{section*.3}{}}
\newlabel{structimg_ring_buffer_ac9819f7bbfad25d18ada410c11df171c}{{3.2}{6}{Public Attributes}{section*.3}{}}
\@writefile{toc}{\contentsline {chapter}{\numberline {4}File Documentation}{7}{chapter.4}}
\@writefile{lof}{\addvspace {10\p@ }}
\@writefile{lot}{\addvspace {10\p@ }}
\@writefile{toc}{\contentsline {section}{\numberline {4.1}/home/skrieg/travail/\discretionary {\unhbox \voidb@x \hbox {\relax \fontsize  {7}{8}\selectfont  $\leftarrow \joinrel  \rhook $}}{}{}Current/master/tm/2\discretionary {\unhbox \voidb@x \hbox {\relax \fontsize  {7}{8}\selectfont  $\leftarrow \joinrel  \rhook $}}{}{}\_\discretionary {\unhbox \voidb@x \hbox {\relax \fontsize  {7}{8}\selectfont  $\leftarrow \joinrel  \rhook $}}{}{}soft/bg\discretionary {\unhbox \voidb@x \hbox {\relax \fontsize  {7}{8}\selectfont  $\leftarrow \joinrel  \rhook $}}{}{}\_\discretionary {\unhbox \voidb@x \hbox {\relax \fontsize  {7}{8}\selectfont  $\leftarrow \joinrel  \rhook $}}{}{}sub\discretionary {\unhbox \voidb@x \hbox {\relax \fontsize  {7}{8}\selectfont  $\leftarrow \joinrel  \rhook $}}{}{}\_\discretionary {\unhbox \voidb@x \hbox {\relax \fontsize  {7}{8}\selectfont  $\leftarrow \joinrel  \rhook $}}{}{}nb/bg\discretionary {\unhbox \voidb@x \hbox {\relax \fontsize  {7}{8}\selectfont  $\leftarrow \joinrel  \rhook $}}{}{}\_\discretionary {\unhbox \voidb@x \hbox {\relax \fontsize  {7}{8}\selectfont  $\leftarrow \joinrel  \rhook $}}{}{}subtraction.cpp File Reference}{7}{section.4.1}}
\newlabel{bg__subtraction_8cpp}{{4.1}{7}{/home/skrieg/travail/\+Current/master/tm/2\+\_\+soft/bg\+\_\+sub\+\_\+nb/bg\+\_\+subtraction.cpp File Reference}{section.4.1}{}}
\@writefile{toc}{\contentsline {subsection}{\numberline {4.1.1}Detailed Description}{7}{subsection.4.1.1}}
\@writefile{toc}{\contentsline {subsection}{\numberline {4.1.2}Function Documentation}{7}{subsection.4.1.2}}
\@writefile{toc}{\contentsline {subsubsection}{\numberline {4.1.2.1}back\discretionary {\unhbox \voidb@x \hbox {\relax \fontsize  {7}{8}\selectfont  $\leftarrow \joinrel  \rhook $}}{}{}Ground\discretionary {\unhbox \voidb@x \hbox {\relax \fontsize  {7}{8}\selectfont  $\leftarrow \joinrel  \rhook $}}{}{}Sub\discretionary {\unhbox \voidb@x \hbox {\relax \fontsize  {7}{8}\selectfont  $\leftarrow \joinrel  \rhook $}}{}{}K\discretionary {\unhbox \voidb@x \hbox {\relax \fontsize  {7}{8}\selectfont  $\leftarrow \joinrel  \rhook $}}{}{}N\discretionary {\unhbox \voidb@x \hbox {\relax \fontsize  {7}{8}\selectfont  $\leftarrow \joinrel  \rhook $}}{}{}N}{7}{subsubsection.4.1.2.1}}
\newlabel{bg__subtraction_8cpp_adec1366b72623f1c312c97b192c80f47}{{4.1.2.1}{7}{back\+Ground\+Sub\+K\+N\+N}{subsubsection.4.1.2.1}{}}
\gdef \PWST@i{2}
\gdef \PWST@ii{1}
\@writefile{toc}{\contentsline {subsubsection}{\numberline {4.1.2.2}back\discretionary {\unhbox \voidb@x \hbox {\relax \fontsize  {7}{8}\selectfont  $\leftarrow \joinrel  \rhook $}}{}{}Ground\discretionary {\unhbox \voidb@x \hbox {\relax \fontsize  {7}{8}\selectfont  $\leftarrow \joinrel  \rhook $}}{}{}Sub\discretionary {\unhbox \voidb@x \hbox {\relax \fontsize  {7}{8}\selectfont  $\leftarrow \joinrel  \rhook $}}{}{}Mog2}{8}{subsubsection.4.1.2.2}}
\newlabel{bg__subtraction_8cpp_a47e99a0cfcc47a39d6185b93f15d4e6e}{{4.1.2.2}{8}{back\+Ground\+Sub\+Mog2}{subsubsection.4.1.2.2}{}}
\@writefile{toc}{\contentsline {section}{\numberline {4.2}/home/skrieg/travail/\discretionary {\unhbox \voidb@x \hbox {\relax \fontsize  {7}{8}\selectfont  $\leftarrow \joinrel  \rhook $}}{}{}Current/master/tm/2\discretionary {\unhbox \voidb@x \hbox {\relax \fontsize  {7}{8}\selectfont  $\leftarrow \joinrel  \rhook $}}{}{}\_\discretionary {\unhbox \voidb@x \hbox {\relax \fontsize  {7}{8}\selectfont  $\leftarrow \joinrel  \rhook $}}{}{}soft/bg\discretionary {\unhbox \voidb@x \hbox {\relax \fontsize  {7}{8}\selectfont  $\leftarrow \joinrel  \rhook $}}{}{}\_\discretionary {\unhbox \voidb@x \hbox {\relax \fontsize  {7}{8}\selectfont  $\leftarrow \joinrel  \rhook $}}{}{}sub\discretionary {\unhbox \voidb@x \hbox {\relax \fontsize  {7}{8}\selectfont  $\leftarrow \joinrel  \rhook $}}{}{}\_\discretionary {\unhbox \voidb@x \hbox {\relax \fontsize  {7}{8}\selectfont  $\leftarrow \joinrel  \rhook $}}{}{}nb/classification.cpp File Reference}{8}{section.4.2}}
\newlabel{classification_8cpp}{{4.2}{8}{/home/skrieg/travail/\+Current/master/tm/2\+\_\+soft/bg\+\_\+sub\+\_\+nb/classification.cpp File Reference}{section.4.2}{}}
\@writefile{toc}{\contentsline {subsection}{\numberline {4.2.1}Detailed Description}{8}{subsection.4.2.1}}
\gdef \PWST@iii{1}
\gdef \PWST@iv{1}
\gdef \PWST@v{1}
\@writefile{toc}{\contentsline {subsection}{\numberline {4.2.2}Function Documentation}{9}{subsection.4.2.2}}
\@writefile{toc}{\contentsline {subsubsection}{\numberline {4.2.2.1}actors\discretionary {\unhbox \voidb@x \hbox {\relax \fontsize  {7}{8}\selectfont  $\leftarrow \joinrel  \rhook $}}{}{}\_\discretionary {\unhbox \voidb@x \hbox {\relax \fontsize  {7}{8}\selectfont  $\leftarrow \joinrel  \rhook $}}{}{}classification}{9}{subsubsection.4.2.2.1}}
\newlabel{classification_8cpp_adfbe64dad19b33c7d7df6e35938d7e74}{{4.2.2.1}{9}{actors\+\_\+classification}{subsubsection.4.2.2.1}{}}
\@writefile{toc}{\contentsline {subsubsection}{\numberline {4.2.2.2}actors\discretionary {\unhbox \voidb@x \hbox {\relax \fontsize  {7}{8}\selectfont  $\leftarrow \joinrel  \rhook $}}{}{}\_\discretionary {\unhbox \voidb@x \hbox {\relax \fontsize  {7}{8}\selectfont  $\leftarrow \joinrel  \rhook $}}{}{}classification\discretionary {\unhbox \voidb@x \hbox {\relax \fontsize  {7}{8}\selectfont  $\leftarrow \joinrel  \rhook $}}{}{}\_\discretionary {\unhbox \voidb@x \hbox {\relax \fontsize  {7}{8}\selectfont  $\leftarrow \joinrel  \rhook $}}{}{}v2}{9}{subsubsection.4.2.2.2}}
\newlabel{classification_8cpp_a0918e5b058308984d61b9d81060c5983}{{4.2.2.2}{9}{actors\+\_\+classification\+\_\+v2}{subsubsection.4.2.2.2}{}}
\@writefile{toc}{\contentsline {subsubsection}{\numberline {4.2.2.3}compute\discretionary {\unhbox \voidb@x \hbox {\relax \fontsize  {7}{8}\selectfont  $\leftarrow \joinrel  \rhook $}}{}{}\_\discretionary {\unhbox \voidb@x \hbox {\relax \fontsize  {7}{8}\selectfont  $\leftarrow \joinrel  \rhook $}}{}{}score}{9}{subsubsection.4.2.2.3}}
\newlabel{classification_8cpp_a49e008e905b09a53c47a9b32e1cd9280}{{4.2.2.3}{9}{compute\+\_\+score}{subsubsection.4.2.2.3}{}}
\@writefile{toc}{\contentsline {subsubsection}{\numberline {4.2.2.4}get\discretionary {\unhbox \voidb@x \hbox {\relax \fontsize  {7}{8}\selectfont  $\leftarrow \joinrel  \rhook $}}{}{}Pos}{10}{subsubsection.4.2.2.4}}
\newlabel{classification_8cpp_aeb49fc804e9cce03671b49c976cd6dcd}{{4.2.2.4}{10}{get\+Pos}{subsubsection.4.2.2.4}{}}
\gdef \PWST@vi{1}
\gdef \PWST@vii{1}
\gdef \PWST@viii{1}
\gdef \PWST@ix{1}
\@writefile{toc}{\contentsline {subsubsection}{\numberline {4.2.2.5}get\discretionary {\unhbox \voidb@x \hbox {\relax \fontsize  {7}{8}\selectfont  $\leftarrow \joinrel  \rhook $}}{}{}Rect\discretionary {\unhbox \voidb@x \hbox {\relax \fontsize  {7}{8}\selectfont  $\leftarrow \joinrel  \rhook $}}{}{}Centroid}{11}{subsubsection.4.2.2.5}}
\newlabel{classification_8cpp_a9d01eba4f46eb13f90a9ffbff314361e}{{4.2.2.5}{11}{get\+Rect\+Centroid}{subsubsection.4.2.2.5}{}}
\@writefile{toc}{\contentsline {subsubsection}{\numberline {4.2.2.6}is\discretionary {\unhbox \voidb@x \hbox {\relax \fontsize  {7}{8}\selectfont  $\leftarrow \joinrel  \rhook $}}{}{}Bounding}{11}{subsubsection.4.2.2.6}}
\newlabel{classification_8cpp_a96bf8534c74bec413c6d93aa6158c567}{{4.2.2.6}{11}{is\+Bounding}{subsubsection.4.2.2.6}{}}
\@writefile{toc}{\contentsline {subsubsection}{\numberline {4.2.2.7}is\discretionary {\unhbox \voidb@x \hbox {\relax \fontsize  {7}{8}\selectfont  $\leftarrow \joinrel  \rhook $}}{}{}Present}{11}{subsubsection.4.2.2.7}}
\newlabel{classification_8cpp_a901f7fbbd7c4f122a7cb331f603d210d}{{4.2.2.7}{11}{is\+Present}{subsubsection.4.2.2.7}{}}
\@writefile{toc}{\contentsline {section}{\numberline {4.3}/home/skrieg/travail/\discretionary {\unhbox \voidb@x \hbox {\relax \fontsize  {7}{8}\selectfont  $\leftarrow \joinrel  \rhook $}}{}{}Current/master/tm/2\discretionary {\unhbox \voidb@x \hbox {\relax \fontsize  {7}{8}\selectfont  $\leftarrow \joinrel  \rhook $}}{}{}\_\discretionary {\unhbox \voidb@x \hbox {\relax \fontsize  {7}{8}\selectfont  $\leftarrow \joinrel  \rhook $}}{}{}soft/bg\discretionary {\unhbox \voidb@x \hbox {\relax \fontsize  {7}{8}\selectfont  $\leftarrow \joinrel  \rhook $}}{}{}\_\discretionary {\unhbox \voidb@x \hbox {\relax \fontsize  {7}{8}\selectfont  $\leftarrow \joinrel  \rhook $}}{}{}sub\discretionary {\unhbox \voidb@x \hbox {\relax \fontsize  {7}{8}\selectfont  $\leftarrow \joinrel  \rhook $}}{}{}\_\discretionary {\unhbox \voidb@x \hbox {\relax \fontsize  {7}{8}\selectfont  $\leftarrow \joinrel  \rhook $}}{}{}nb/detection.cpp File Reference}{11}{section.4.3}}
\newlabel{detection_8cpp}{{4.3}{11}{/home/skrieg/travail/\+Current/master/tm/2\+\_\+soft/bg\+\_\+sub\+\_\+nb/detection.cpp File Reference}{section.4.3}{}}
\gdef \PWST@x{1}
\@writefile{toc}{\contentsline {subsection}{\numberline {4.3.1}Detailed Description}{12}{subsection.4.3.1}}
\@writefile{toc}{\contentsline {subsection}{\numberline {4.3.2}Function Documentation}{12}{subsection.4.3.2}}
\@writefile{toc}{\contentsline {subsubsection}{\numberline {4.3.2.1}detect\discretionary {\unhbox \voidb@x \hbox {\relax \fontsize  {7}{8}\selectfont  $\leftarrow \joinrel  \rhook $}}{}{}\_\discretionary {\unhbox \voidb@x \hbox {\relax \fontsize  {7}{8}\selectfont  $\leftarrow \joinrel  \rhook $}}{}{}contours}{12}{subsubsection.4.3.2.1}}
\newlabel{detection_8cpp_a22477885ed901987c1e1387d287ac5ce}{{4.3.2.1}{12}{detect\+\_\+contours}{subsubsection.4.3.2.1}{}}
\@writefile{toc}{\contentsline {section}{\numberline {4.4}/home/skrieg/travail/\discretionary {\unhbox \voidb@x \hbox {\relax \fontsize  {7}{8}\selectfont  $\leftarrow \joinrel  \rhook $}}{}{}Current/master/tm/2\discretionary {\unhbox \voidb@x \hbox {\relax \fontsize  {7}{8}\selectfont  $\leftarrow \joinrel  \rhook $}}{}{}\_\discretionary {\unhbox \voidb@x \hbox {\relax \fontsize  {7}{8}\selectfont  $\leftarrow \joinrel  \rhook $}}{}{}soft/bg\discretionary {\unhbox \voidb@x \hbox {\relax \fontsize  {7}{8}\selectfont  $\leftarrow \joinrel  \rhook $}}{}{}\_\discretionary {\unhbox \voidb@x \hbox {\relax \fontsize  {7}{8}\selectfont  $\leftarrow \joinrel  \rhook $}}{}{}sub\discretionary {\unhbox \voidb@x \hbox {\relax \fontsize  {7}{8}\selectfont  $\leftarrow \joinrel  \rhook $}}{}{}\_\discretionary {\unhbox \voidb@x \hbox {\relax \fontsize  {7}{8}\selectfont  $\leftarrow \joinrel  \rhook $}}{}{}nb/obj\discretionary {\unhbox \voidb@x \hbox {\relax \fontsize  {7}{8}\selectfont  $\leftarrow \joinrel  \rhook $}}{}{}\_\discretionary {\unhbox \voidb@x \hbox {\relax \fontsize  {7}{8}\selectfont  $\leftarrow \joinrel  \rhook $}}{}{}detect\discretionary {\unhbox \voidb@x \hbox {\relax \fontsize  {7}{8}\selectfont  $\leftarrow \joinrel  \rhook $}}{}{}\_\discretionary {\unhbox \voidb@x \hbox {\relax \fontsize  {7}{8}\selectfont  $\leftarrow \joinrel  \rhook $}}{}{}gui.cpp File Reference}{12}{section.4.4}}
\newlabel{obj__detect__gui_8cpp}{{4.4}{12}{/home/skrieg/travail/\+Current/master/tm/2\+\_\+soft/bg\+\_\+sub\+\_\+nb/obj\+\_\+detect\+\_\+gui.cpp File Reference}{section.4.4}{}}
\newlabel{obj__detect__gui_8cpp_ab6e22b0f657eec8fdaf8c09d5f98848c}{{4.4}{12}{Functions}{section*.7}{}}
\newlabel{obj__detect__gui_8cpp_a95a90dde540044798d4c9b62fdce5102}{{4.4}{12}{Functions}{section*.7}{}}
\newlabel{obj__detect__gui_8cpp_ab74bad0ea36d09d878ec83137da89e8c}{{4.4}{12}{Functions}{section*.7}{}}
\newlabel{obj__detect__gui_8cpp_acf7f267e93bd40937cc27ba6b010b928}{{4.4}{12}{Functions}{section*.7}{}}
\newlabel{obj__detect__gui_8cpp_ab342655d3f1bb73d22476293373fe8d2}{{4.4}{12}{Functions}{section*.7}{}}
\newlabel{obj__detect__gui_8cpp_a62b078a8dcfaafdc85ddefb0d49dbd84}{{4.4}{12}{Functions}{section*.7}{}}
\newlabel{obj__detect__gui_8cpp_a3cd140e68099a92b9302165ca4ec0667}{{4.4}{12}{Functions}{section*.7}{}}
\newlabel{obj__detect__gui_8cpp_a63bbabce87e0b535c0f57d64aa7fef42}{{4.4}{12}{Functions}{section*.7}{}}
\newlabel{obj__detect__gui_8cpp_a9b48ad8b8706975b6cdf40794e71a12f}{{4.4}{12}{Functions}{section*.7}{}}
\newlabel{obj__detect__gui_8cpp_a1495699a92e355fa3b371b92e5dadaed}{{4.4}{13}{Functions}{section*.7}{}}
\newlabel{obj__detect__gui_8cpp_ac5b979cb3bdec886e37baaa1834a85a1}{{4.4}{13}{Functions}{section*.7}{}}
\newlabel{obj__detect__gui_8cpp_a86e0f02729b89ba17c2c6dddf308e02d}{{4.4}{13}{Functions}{section*.7}{}}
\newlabel{obj__detect__gui_8cpp_a12d1d49a70c7053fdad00022aac3b9dc}{{4.4}{13}{Functions}{section*.7}{}}
\newlabel{obj__detect__gui_8cpp_afac0e6049d860455e5cb6539f53dc921}{{4.4}{13}{Functions}{section*.7}{}}
\newlabel{obj__detect__gui_8cpp_a15365ad17ed456474e677c7bbf77e33d}{{4.4}{13}{Functions}{section*.7}{}}
\newlabel{obj__detect__gui_8cpp_a76b74e71e9782c1d896f57033f9364e0}{{4.4}{13}{Functions}{section*.7}{}}
\newlabel{obj__detect__gui_8cpp_a2e04d46b5b93f80eddd2d4ca3d8b5343}{{4.4}{13}{Functions}{section*.7}{}}
\newlabel{obj__detect__gui_8cpp_a945a6b1ec9ca467ab6a9f586383bbf9d}{{4.4}{13}{Functions}{section*.7}{}}
\newlabel{obj__detect__gui_8cpp_add8d65fcb2fb228f8d4dde58e0cfb8ee}{{4.4}{13}{Functions}{section*.7}{}}
\newlabel{obj__detect__gui_8cpp_a5d7338b0923230b3f0e5a1d098bb6a33}{{4.4}{13}{Functions}{section*.7}{}}
\newlabel{obj__detect__gui_8cpp_a3e75832e339ea9a550c3d6748eb63231}{{4.4}{13}{Functions}{section*.7}{}}
\newlabel{obj__detect__gui_8cpp_a9067022d69a28edf0e4bc97764328847}{{4.4}{13}{Functions}{section*.7}{}}
\newlabel{obj__detect__gui_8cpp_a533f64254cee44fe027a29364a806741}{{4.4}{13}{Functions}{section*.7}{}}
\newlabel{obj__detect__gui_8cpp_a6ee508c3e8d087bfb4b4e82cecbf3727}{{4.4}{13}{Functions}{section*.7}{}}
\newlabel{obj__detect__gui_8cpp_a988c0e8e4512d12a02ccb17dbede4db4}{{4.4}{13}{Functions}{section*.7}{}}
\newlabel{obj__detect__gui_8cpp_a4e805eb06f778fef2239be3f62108d5f}{{4.4}{13}{Functions}{section*.7}{}}
\newlabel{obj__detect__gui_8cpp_a6060d708e2c654a88021136da5e276b7}{{4.4}{13}{Functions}{section*.7}{}}
\@writefile{toc}{\contentsline {subsection}{\numberline {4.4.1}Detailed Description}{13}{subsection.4.4.1}}
\@writefile{toc}{\contentsline {section}{\numberline {4.5}/home/skrieg/travail/\discretionary {\unhbox \voidb@x \hbox {\relax \fontsize  {7}{8}\selectfont  $\leftarrow \joinrel  \rhook $}}{}{}Current/master/tm/2\discretionary {\unhbox \voidb@x \hbox {\relax \fontsize  {7}{8}\selectfont  $\leftarrow \joinrel  \rhook $}}{}{}\_\discretionary {\unhbox \voidb@x \hbox {\relax \fontsize  {7}{8}\selectfont  $\leftarrow \joinrel  \rhook $}}{}{}soft/bg\discretionary {\unhbox \voidb@x \hbox {\relax \fontsize  {7}{8}\selectfont  $\leftarrow \joinrel  \rhook $}}{}{}\_\discretionary {\unhbox \voidb@x \hbox {\relax \fontsize  {7}{8}\selectfont  $\leftarrow \joinrel  \rhook $}}{}{}sub\discretionary {\unhbox \voidb@x \hbox {\relax \fontsize  {7}{8}\selectfont  $\leftarrow \joinrel  \rhook $}}{}{}\_\discretionary {\unhbox \voidb@x \hbox {\relax \fontsize  {7}{8}\selectfont  $\leftarrow \joinrel  \rhook $}}{}{}nb/obj\discretionary {\unhbox \voidb@x \hbox {\relax \fontsize  {7}{8}\selectfont  $\leftarrow \joinrel  \rhook $}}{}{}\_\discretionary {\unhbox \voidb@x \hbox {\relax \fontsize  {7}{8}\selectfont  $\leftarrow \joinrel  \rhook $}}{}{}detect\discretionary {\unhbox \voidb@x \hbox {\relax \fontsize  {7}{8}\selectfont  $\leftarrow \joinrel  \rhook $}}{}{}\_\discretionary {\unhbox \voidb@x \hbox {\relax \fontsize  {7}{8}\selectfont  $\leftarrow \joinrel  \rhook $}}{}{}main.cpp File Reference}{13}{section.4.5}}
\newlabel{obj__detect__main_8cpp}{{4.5}{13}{/home/skrieg/travail/\+Current/master/tm/2\+\_\+soft/bg\+\_\+sub\+\_\+nb/obj\+\_\+detect\+\_\+main.cpp File Reference}{section.4.5}{}}
\newlabel{obj__detect__main_8cpp_ae74254b32ad849e802f8326d442d8cc8}{{4.5}{13}{Macros}{section*.8}{}}
\newlabel{obj__detect__main_8cpp_a54d6f488673cace146c57463085fcf66}{{4.5}{13}{Macros}{section*.8}{}}
\newlabel{obj__detect__main_8cpp_a1a0153dd5575ffa9cf7dd5eb91ca4271}{{4.5}{13}{Macros}{section*.8}{}}
\newlabel{obj__detect__main_8cpp_a4ae32f83a44c616c4bc29cb8885947eb}{{4.5}{13}{Macros}{section*.8}{}}
\newlabel{obj__detect__main_8cpp_a0890aaca6d998794f2419744c1d272b1}{{4.5}{13}{Macros}{section*.8}{}}
\newlabel{obj__detect__main_8cpp_a0134988ddb9f2cd0397f1ac985abd91c}{{4.5}{13}{Macros}{section*.8}{}}
\newlabel{obj__detect__main_8cpp_ab5eea68fd1e1f3c79589acc83c815cf4}{{4.5}{14}{Functions}{section*.9}{}}
\newlabel{obj__detect__main_8cpp_aa15172f9a5e98afacd7d961c5406e01d}{{4.5}{14}{Functions}{section*.9}{}}
\@writefile{toc}{\contentsline {subsection}{\numberline {4.5.1}Detailed Description}{14}{subsection.4.5.1}}
\@writefile{toc}{\contentsline {subsection}{\numberline {4.5.2}Function Documentation}{14}{subsection.4.5.2}}
\@writefile{toc}{\contentsline {subsubsection}{\numberline {4.5.2.1}help}{14}{subsubsection.4.5.2.1}}
\newlabel{obj__detect__main_8cpp_a97ee70a8770dc30d06c744b24eb2fcfc}{{4.5.2.1}{14}{help}{subsubsection.4.5.2.1}{}}
\@writefile{toc}{\contentsline {subsubsection}{\numberline {4.5.2.2}main}{14}{subsubsection.4.5.2.2}}
\newlabel{obj__detect__main_8cpp_a0ddf1224851353fc92bfbff6f499fa97}{{4.5.2.2}{14}{main}{subsubsection.4.5.2.2}{}}
\@writefile{toc}{\contentsline {section}{\numberline {4.6}/home/skrieg/travail/\discretionary {\unhbox \voidb@x \hbox {\relax \fontsize  {7}{8}\selectfont  $\leftarrow \joinrel  \rhook $}}{}{}Current/master/tm/2\discretionary {\unhbox \voidb@x \hbox {\relax \fontsize  {7}{8}\selectfont  $\leftarrow \joinrel  \rhook $}}{}{}\_\discretionary {\unhbox \voidb@x \hbox {\relax \fontsize  {7}{8}\selectfont  $\leftarrow \joinrel  \rhook $}}{}{}soft/bg\discretionary {\unhbox \voidb@x \hbox {\relax \fontsize  {7}{8}\selectfont  $\leftarrow \joinrel  \rhook $}}{}{}\_\discretionary {\unhbox \voidb@x \hbox {\relax \fontsize  {7}{8}\selectfont  $\leftarrow \joinrel  \rhook $}}{}{}sub\discretionary {\unhbox \voidb@x \hbox {\relax \fontsize  {7}{8}\selectfont  $\leftarrow \joinrel  \rhook $}}{}{}\_\discretionary {\unhbox \voidb@x \hbox {\relax \fontsize  {7}{8}\selectfont  $\leftarrow \joinrel  \rhook $}}{}{}nb/obj\discretionary {\unhbox \voidb@x \hbox {\relax \fontsize  {7}{8}\selectfont  $\leftarrow \joinrel  \rhook $}}{}{}\_\discretionary {\unhbox \voidb@x \hbox {\relax \fontsize  {7}{8}\selectfont  $\leftarrow \joinrel  \rhook $}}{}{}detect\discretionary {\unhbox \voidb@x \hbox {\relax \fontsize  {7}{8}\selectfont  $\leftarrow \joinrel  \rhook $}}{}{}\_\discretionary {\unhbox \voidb@x \hbox {\relax \fontsize  {7}{8}\selectfont  $\leftarrow \joinrel  \rhook $}}{}{}mono\discretionary {\unhbox \voidb@x \hbox {\relax \fontsize  {7}{8}\selectfont  $\leftarrow \joinrel  \rhook $}}{}{}\_\discretionary {\unhbox \voidb@x \hbox {\relax \fontsize  {7}{8}\selectfont  $\leftarrow \joinrel  \rhook $}}{}{}task.cpp File Reference}{14}{section.4.6}}
\newlabel{obj__detect__mono__task_8cpp}{{4.6}{14}{/home/skrieg/travail/\+Current/master/tm/2\+\_\+soft/bg\+\_\+sub\+\_\+nb/obj\+\_\+detect\+\_\+mono\+\_\+task.cpp File Reference}{section.4.6}{}}
\newlabel{obj__detect__mono__task_8cpp_a60d550de6424b8a6dcdaebee740da1df}{{4.6}{14}{Macros}{section*.10}{}}
\newlabel{obj__detect__mono__task_8cpp_ab0a99bd00ba2610261c3661d3d0902dd}{{4.6}{14}{Functions}{section*.11}{}}
\gdef \PWST@xi{1}
\gdef \PWST@xii{1}
\newlabel{obj__detect__mono__task_8cpp_a868659a2f991de87c2b0dcbe6cea6175}{{4.6}{15}{Variables}{section*.12}{}}
\newlabel{obj__detect__mono__task_8cpp_a86615c5d92f335797f59a1e4759a792e}{{4.6}{15}{Variables}{section*.12}{}}
\newlabel{obj__detect__mono__task_8cpp_ad15a8ce4aa6554fbf7d6da0154d57021}{{4.6}{15}{Variables}{section*.12}{}}
\newlabel{obj__detect__mono__task_8cpp_a49428d6852ba15e1f1cbc126e6695ab0}{{4.6}{15}{Variables}{section*.12}{}}
\newlabel{obj__detect__mono__task_8cpp_afb9584b2dec7d2cb8edd384b8e6c6f37}{{4.6}{15}{Variables}{section*.12}{}}
\@writefile{toc}{\contentsline {subsection}{\numberline {4.6.1}Detailed Description}{15}{subsection.4.6.1}}
\@writefile{toc}{\contentsline {subsection}{\numberline {4.6.2}Function Documentation}{15}{subsection.4.6.2}}
\@writefile{toc}{\contentsline {subsubsection}{\numberline {4.6.2.1}compute\discretionary {\unhbox \voidb@x \hbox {\relax \fontsize  {7}{8}\selectfont  $\leftarrow \joinrel  \rhook $}}{}{}\_\discretionary {\unhbox \voidb@x \hbox {\relax \fontsize  {7}{8}\selectfont  $\leftarrow \joinrel  \rhook $}}{}{}duration}{15}{subsubsection.4.6.2.1}}
\newlabel{obj__detect__mono__task_8cpp_a8a94f52f0d16cb326806d51c10215ff3}{{4.6.2.1}{15}{compute\+\_\+duration}{subsubsection.4.6.2.1}{}}
\@writefile{toc}{\contentsline {subsubsection}{\numberline {4.6.2.2}use\discretionary {\unhbox \voidb@x \hbox {\relax \fontsize  {7}{8}\selectfont  $\leftarrow \joinrel  \rhook $}}{}{}\_\discretionary {\unhbox \voidb@x \hbox {\relax \fontsize  {7}{8}\selectfont  $\leftarrow \joinrel  \rhook $}}{}{}floodfill}{15}{subsubsection.4.6.2.2}}
\newlabel{obj__detect__mono__task_8cpp_a980f6f7b69421c0ba64e6a600007489c}{{4.6.2.2}{15}{use\+\_\+floodfill}{subsubsection.4.6.2.2}{}}
